1,Johann Bach,1721,Brandenburg Concertos,1126
2,Wolfgang Mozart,1783,Turkish stop,498
3,Ludwig van Beethoven,1801,Moonlight Sonata,122
4,Richard Wagner,1856,Ride of the Valkyries,56
5,Franz Liszt,1854,Dreams of love,1205